…
  
## What is mean total number of steps taken per day?
  
1.Calculate the total number of steps taken per day

```r
activity %>% group_by(date) %>% summarise_at(vars(steps), sum) -> steps_perday
print(steps_perday)
```

```
## # A tibble: 61 x 2
##    date       steps
##    <date>     <int>
##  1 2012-10-01    NA
##  2 2012-10-02   126
##  3 2012-10-03 11352
##  4 2012-10-04 12116
##  5 2012-10-05 13294
##  6 2012-10-06 15420
##  7 2012-10-07 11015
##  8 2012-10-08    NA
##  9 2012-10-09 12811
## 10 2012-10-10  9900
## # ... with 51 more rows
```
…
## What is the average daily activity pattern?
  
1.Make a time series plot (i.e. type = "l") of the 5-minute interval (x-axis) and the average number of steps taken, averaged across all days (y-axis)


```r
activity %>% 
  group_by(interval) %>%
  summarise(average_stps = mean(steps, na.rm =TRUE)) -> Av_Steps_In
print(Av_Steps_In)
```

```
## # A tibble: 288 x 2
##    interval average_stps
##       <int>        <dbl>
##  1        0       1.72  
##  2        5       0.340 
##  3       10       0.132 
##  4       15       0.151 
##  5       20       0.0755
##  6       25       2.09  
##  7       30       0.528 
##  8       35       0.868 
##  9       40       0.    
## 10       45       1.47  
## # ... with 278 more rows
```
…
2.Which 5-minute interval, on average across all the days in the dataset, contains the maximum number of steps?

```r
Av_Steps_In %>% arrange(desc(average_stps))
```

```
## # A tibble: 288 x 2
##    interval average_stps
##       <int>        <dbl>
##  1      835         206.
##  2      840         196.
##  3      850         183.
##  4      845         180.
##  5      830         177.
##  6      820         171.
##  7      855         167.
##  8      815         158.
##  9      825         155.
## 10      900         143.
## # ... with 278 more rows
```
…
2.    Make a panel plot containing a time series plot (i.e. type = "l") of the 5-minute interval (x-axis) and the average number of steps taken, averaged across all weekday days or weekend days (y-axis). See the README file in the GitHub repository to see an example of what this plot should look like using simulated data.


```r
activity %>% 
  group_by(interval, weekend) %>% 
  summarise(average_steps =  mean(steps, na.rm = TRUE)) -> Iv_Wd
Iv_Wd
```

```
## # A tibble: 576 x 3
## # Groups:   interval [?]
##    interval weekend average_steps
##       <int> <chr>           <dbl>
##  1        0 weekday         2.33 
##  2        0 weekend         0.   
##  3        5 weekday         0.462
##  4        5 weekend         0.   
##  5       10 weekday         0.179
##  6       10 weekend         0.   
##  7       15 weekday         0.205
##  8       15 weekend         0.   
##  9       20 weekday         0.103
## 10       20 weekend         0.   
## # ... with 566 more rows
```
…
